touchpad/capture.vcd
$comment 
  OLS Java Client
$end
$date 
  Apr 3, 2014 6:39:11 PM
$end
$version 
  VCD exporter v1.1
$end
$timescale 
  1 us
$end
$scope 
  module logic
$end
$var wire 1 ! Channel-0 $end
$var wire 1 " Channel-1 $end
$var wire 1 # Channel-2 $end
$var wire 1 $ Channel-3 $end
$var wire 1 % Channel-4 $end
$var wire 1 & Channel-5 $end
$var wire 1 ' Channel-6 $end
$var wire 1 ( Channel-7 $end
$upscope $end
$enddefinitions $end
$dumpvars
x!
x"
x#
x$
x%
x&
x'
x(
$end
#0
1!
1"
0#
0$
0%
0&
0'
0(
#11765
0!
#11790
0"
#11830
1"
#11870
0"
#11915
1"
#11955
0"
#11995
1"
#12040
0"
#12080
1"
#12100
1!
#12120
0"
#12165
1"
#12185
0!
#12205
0"
#12245
1"
#12270
1!
#12290
0"
#12330
1"
#12350
0!
#12370
0"
#12415
1"
#12455
0"
#12495
1"
#12520
1!
#12540
0"
#12580
1"
#12620
0"
#12680
1"
#12995
0!
#13015
0"
#13060
1"
#13100
0"
#13145
1"
#13165
1!
#13185
0"
#13225
1"
#13245
0!
#13270
0"
#13310
1"
#13350
0"
#13395
1"
#13435
0"
#13475
1"
#13520
0"
#13560
1"
#13600
0"
#13645
1"
#13685
0"
#13725
1"
#13770
0"
#13810
1"
#13830
1!
#13850
0"
#13895
1"
#13925
0"
#13935
1"
#14225
0!
#14245
0"
#14290
1"
#14310
1!
#14330
0"
#14370
1"
#14415
0"
#14455
1"
#14495
0"
#14540
1"
#14580
0"
#14625
1"
#14665
0"
#14705
1"
#14745
0"
#14790
1"
#14830
0"
#14875
1"
#14915
0"
#14955
1"
#15000
0"
#15040
1"
#15080
0"
#15125
1"
#15150
0"
#15160
1"
#15455
0!
#15475
0"
#15520
1"
#15560
0"
#15600
1"
#15645
0"
#15685
1"
#15725
0"
#15770
1"
#15810
0"
#15850
1"
#15895
0"
#15935
1"
#15975
0"
#16020
1"
#16060
0"
#16100
1"
#16145
0"
#16185
1"
#16205
1!
#16225
0"
#16270
1"
#16310
0"
#16350
1"
#16375
0"
#16385
1"
#23735
0!
#23760
0"
#23800
1"
#23840
0"
#23885
1"
#23925
0"
#23965
1"
#24010
0"
#24050
1"
#24070
1!
#24090
0"
#24135
1"
#24155
0!
#24175
0"
#24215
1"
#24240
1!
#24260
0"
#24300
1"
#24320
0!
#24340
0"
#24385
1"
#24425
0"
#24470
1"
#24490
1!
#24510
0"
#24550
1"
#24595
0"
#24650
1"
#24965
0!
#24990
0"
#25030
1"
#25050
1!
#25070
0"
#25115
1"
#25155
0"
#25195
1"
#25215
0!
#25240
0"
#25280
1"
#25320
0"
#25365
1"
#25405
0"
#25445
1"
#25490
0"
#25530
1"
#25570
0"
#25615
1"
#25655
0"
#25695
1"
#25720
1!
#25740
0"
#25780
1"
#25820
0"
#25865
1"
#25895
0"
#25905
1"
#26195
0!
#26215
0"
#26260
1"
#26280
1!
#26300
0"
#26345
1"
#26385
0"
#26425
1"
#26470
0"
#26510
1"
#26550
0"
#26595
1"
#26635
0"
#26675
1"
#26720
0"
#26760
1"
#26800
0"
#26845
1"
#26885
0"
#26925
1"
#26970
0"
#27010
1"
#27050
0"
#27095
1"
#27120
0"
#27130
1"
#27425
0!
#27445
0"
#27490
1"
#27530
0"
#27570
1"
#27615
0"
#27655
1"
#27695
0"
#27740
1"
#27780
0"
#27825
1"
#27865
0"
#27905
1"
#27945
0"
#27990
1"
#28030
0"
#28075
1"
#28115
0"
#28155
1"
#28175
1!
#28200
0"
#28240
1"
#28280
0"
#28325
1"
#28345
0"
#28355
1"
#35705
0!
#35725
0"
#35770
1"
#35810
0"
#35850
1"
#35895
0"
#35935
1"
#35975
0"
#36020
1"
#36040
1!
#36060
0"
#36100
1"
#36125
0!
#36145
0"
#36185
1"
#36225
0"
#36270
1"
#36310
0"
#36350
1"
#36395
0"
#36435
1"
#36475
0"
#36520
1"
#36540
1!
#36560
0"
#36620
1"
#36935
0!
#36955
0"
#37000
1"
#37040
0"
#37080
1"
#37100
1!
#37125
0"
#37165
1"
#37185
0!
#37205
0"
#37250
1"
#37290
0"
#37330
1"
#37375
0"
#37415
1"
#37455
0"
#37500
1"
#37540
0"
#37580
1"
#37625
0"
#37665
1"
#37705
0"
#37750
1"
#37770
1!
#37790
0"
#37830
1"
#37865
0"
#37875
1"
#38165
0!
#38185
0"
#38225
1"
#38270
0"
#38310
1"
#38350
0"
#38395
1"
#38435
0"
#38480
1"
#38520
0"
#38560
1"
#38600
0"
#38645
1"
#38685
0"
#38730
1"
#38770
0"
#38810
1"
#38855
0"
#38895
1"
#38915
1!
#38935
0"
#38980
1"
#39020
0"
#39060
1"
#39090
0"
#39100
1"
#39395
0!
#39415
0"
#39455
1"
#39500
0"
#39540
1"
#39580
0"
#39625
1"
#39665
0"
#39705
1"
#39750
0"
#39790
1"
#39830
0"
#39875
1"
#39915
0"
#39955
1"
#40000
0"
#40040
1"
#40080
0"
#40125
1"
#40145
1!
#40165
0"
#40210
1"
#40250
0"
#40290
1"
#40315
0"
#40325
1"
#47680
0!
#47700
0"
#47745
1"
#47785
0"
#47825
1"
#47870
0"
#47910
1"
#47950
0"
#47995
1"
#48015
1!
#48035
0"
#48075
1"
#48095
0!
#48120
0"
#48160
1"
#48180
1!
#48200
0"
#48245
1"
#48265
0!
#48285
0"
#48325
1"
#48370
0"
#48410
1"
#48430
1!
#48450
0"
#48495
1"
#48535
0"
#48575
1"
#48610
0"
#48625
1"
#48910
0!
#48930
0"
#48970
1"
#48995
1!
#49015
0"
#49055
1"
#49095
0"
#49140
1"
#49160
0!
#49180
0"
#49225
1"
#49265
0"
#49305
1"
#49345
0"
#49390
1"
#49430
0"
#49475
1"
#49515
0"
#49555
1"
#49600
0"
#49640
1"
#49660
1!
#49680
0"
#49725
1"
#49765
0"
#49805
1"
#49835
0"
#49845
1"
#50140
0!
#50160
0"
#50200
1"
#50225
1!
#50245
0"
#50285
1"
#50325
0"
#50370
1"
#50410
0"
#50450
1"
#50495
0"
#50535
1"
#50575
0"
#50620
1"
#50660
0"
#50700
1"
#50745
0"
#50785
1"
#50825
0"
#50870
1"
#50910
0"
#50955
1"
#50995
0"
#51035
1"
#51060
0"
#51070
1"
#51370
0!
#51390
0"
#51430
1"
#51475
0"
#51515
1"
#51555
0"
#51600
1"
#51640
0"
#51680
1"
#51725
0"
#51765
1"
#51805
0"
#51850
1"
#51890
0"
#51930
1"
#51975
0"
#52015
1"
#52055
0"
#52100
1"
#52120
1!
#52140
0"
#52180
1"
#52225
0"
#52265
1"
#52290
0"
#52295
1"
#59650
0!
#59670
0"
#59715
1"
#59755
0"
#59795
1"
#59840
0"
#59880
1"
#59920
0"
#59965
1"
#59985
1!
#60005
0"
#60045
1"
#60070
0!
#60090
0"
#60130
1"
#60150
1!
#60170
0"
#60215
1"
#60235
0!
#60255
0"
#60300
1"
#60340
0"
#60380
1"
#60400
1!
#60420
0"
#60465
1"
#60505
0"
#60550
1"
#60580
0"
#60590
1"
#60880
0!
#60900
0"
#60945
1"
#60965
1!
#60985
0"
#61025
1"
#61070
0"
#61110
1"
#61130
0!
#61150
0"
#61195
1"
#61235
0"
#61275
1"
#61320
0"
#61360
1"
#61400
0"
#61445
1"
#61485
0"
#61525
1"
#61570
0"
#61610
1"
#61630
1!
#61650
0"
#61695
1"
#61735
0"
#61775
1"
#61805
0"
#61815
1"
#62110
0!
#62130
0"
#62175
1"
#62195
1!
#62215
0"
#62255
1"
#62295
0"
#62340
1"
#62380
0"
#62425
1"
#62465
0"
#62505
1"
#62550
0"
#62590
1"
#62630
0"
#62675
1"
#62715
0"
#62755
1"
#62800
0"
#62840
1"
#62880
0"
#62925
1"
#62965
0"
#63005
1"
#63030
0"
#63040
1"
#63340
0!
#63360
0"
#63400
1"
#63445
0"
#63485
1"
#63525
0"
#63570
1"
#63610
0"
#63650
1"
#63695
0"
#63735
1"
#63775
0"
#63820
1"
#63860
0"
#63905
1"
#63945
0"
#63985
1"
#64025
0"
#64070
1"
#64090
1!
#64110
0"
#64155
1"
#64195
0"
#64235
1"
#64255
0"
#64265
1"
#71625
0!
#71645
0"
#71685
1"
#71725
0"
#71770
1"
#71810
0"
#71855
1"
#71895
0"
#71935
1"
#71955
1!
#71975
0"
#72020
1"
#72040
0!
#72060
0"
#72105
1"
#72145
0"
#72185
1"
#72230
0"
#72270
1"
#72310
0"
#72355
1"
#72395
0"
#72435
1"
#72460
1!
#72480
0"
#72520
1"
#72555
0"
#72560
1"
#72850
0!
#72875
0"
#72915
1"
#72935
1!
#72955
0"
#73000
1"
#73040
0"
#73080
1"
#73105
0!
#73125
0"
#73165
1"
#73205
0"
#73250
1"
#73290
0"
#73330
1"
#73375
0"
#73415
1"
#73455
0"
#73500
1"
#73540
0"
#73585
1"
#73605
1!
#73625
0"
#73665
1"
#73710
0"
#73750
1"
#73780
0"
#73785
1"
#74080
0!
#74105
0"
#74145
1"
#74185
0"
#74230
1"
#74270
0"
#74310
1"
#74355
0"
#74395
1"
#74435
0"
#74480
1"
#74520
0"
#74560
1"
#74605
0"
#74645
1"
#74685
0"
#74730
1"
#74770
0"
#74810
1"
#74835
1!
#74855
0"
#74895
1"
#74935
0"
#74980
1"
#75000
0"
#75010
1"
#75310
0!
#75330
0"
#75375
1"
#75415
0"
#75460
1"
#75500
0"
#75540
1"
#75585
0"
#75625
1"
#75665
0"
#75710
1"
#75750
0"
#75790
1"
#75835
0"
#75875
1"
#75915
0"
#75960
1"
#76000
0"
#76040
1"
#76065
1!
#76085
0"
#76125
1"
#76165
0"
#76210
1"
#76225
0"
#76235
1"
#83590
0!
#83610
0"
#83655
1"
#83695
0"
#83735
1"
#83780
0"
#83820
1"
#83860
0"
#83905
1"
#83925
1!
#83945
0"
#83985
1"
#84010
0!
#84030
0"
#84070
1"
#84110
0"
#84155
1"
#84195
0"
#84235
1"
#84280
0"
#84320
1"
#84360
0"
#84405
1"
#84425
1!
#84445
0"
#84490
1"
#84520
0"
#84535
1"
#84820
0!
#84840
0"
#84885
1"
#84905
1!
#84925
0"
#84965
1"
#85010
0"
#85050
1"
#85070
0!
#85090
0"
#85135
1"
#85175
0"
#85215
1"
#85260
0"
#85300
1"
#85340
0"
#85385
1"
#85425
0"
#85465
1"
#85510
0"
#85550
1"
#85570
1!
#85590
0"
#85635
1"
#85675
0"
#85715
1"
#85745
0"
#85755
1"
#86050
0!
#86070
0"
#86110
1"
#86155
0"
#86195
1"
#86235
0"
#86280
1"
#86320
0"
#86365
1"
#86405
0"
#86445
1"
#86490
0"
#86530
1"
#86570
0"
#86615
1"
#86655
0"
#86695
1"
#86740
0"
#86780
1"
#86800
1!
#86820
0"
#86865
1"
#86905
0"
#86945
1"
#86970
0"
#86980
1"
#87280
0!
#87300
0"
#87340
1"
#87385
0"
#87425
1"
#87465
0"
#87510
1"
#87550
0"
#87590
1"
#87635
0"
#87675
1"
#87715
0"
#87760
1"
#87800
0"
#87845
1"
#87885
0"
#87925
1"
#87965
0"
#88010
1"
#88030
1!
#88050
0"
#88095
1"
#88135
0"
#88175
1"
#88200
0"
#88205
1"
#95565
0!
#95585
0"
#95630
1"
#95670
0"
#95710
1"
#95755
0"
#95795
1"
#95835
0"
#95880
1"
#95900
1!
#95920
0"
#95960
1"
#95985
0!
#96005
0"
#96045
1"
#96065
1!
#96085
0"
#96130
1"
#96150
0!
#96170
0"
#96210
1"
#96255
0"
#96295
1"
#96315
1!
#96335
0"
#96380
1"
#96420
0"
#96465
1"
#96495
0"
#96505
1"
#96795
0!
#96815
0"
#96860
1"
#96880
1!
#96900
0"
#96940
1"
#96985
0"
#97025
1"
#97045
0!
#97065
0"
#97110
1"
#97150
0"
#97190
1"
#97235
0"
#97275
1"
#97315
0"
#97360
1"
#97400
0"
#97440
1"
#97485
0"
#97525
1"
#97545
1!
#97565
0"
#97610
1"
#97650
0"
#97690
1"
#97715
0"
#97725
1"
#98025
0!
#98045
0"
#98085
1"
#98110
1!
#98130
0"
#98170
1"
#98210
0"
#98255
1"
#98295
0"
#98340
1"
#98380
0"
#98420
1"
#98460
0"
#98505
1"
#98545
0"
#98590
1"
#98630
0"
#98670
1"
#98715
0"
#98755
1"
#98795
0"
#98840
1"
#98880
0"
#98920
1"
#98940
0"
#98950
1"
#99255
0!
#99275
0"
#99315
1"
#99360
0"
#99400
1"
#99440
0"
#99485
1"
#99525
0"
#99565
1"
#99610
0"
#99650
1"
#99690
0"
#99735
1"
#99775
0"
#99815
1"
#99860
0"
#99900
1"
#99940
0"
#99985
1"
#100005
1!
#100025
0"
#100070
1"
#100110
0"
#100150
1"
#100170
0"
#100175
1"
#107535
0!
#107555
0"
#107595
1"
#107640
0"
#107680
1"
#107720
0"
#107765
1"
#107805
0"
#107845
1"
#107865
1!
#107890
0"
#107930
1"
#107950
0!
#107970
0"
#108015
1"
#108055
0"
#108095
1"
#108140
0"
#108180
1"
#108220
0"
#108265
1"
#108305
0"
#108345
1"
#108370
1!
#108390
0"
#108430
1"
#108460
0"
#108470
1"
#108765
0!
#108785
0"
#108825
1"
#108865
0"
#108910
1"
#108950
0"
#108995
1"
#109015
1!
#109035
0"
#109075
1"
#109095
0!
#109115
0"
#109160
1"
#109200
0"
#109245
1"
#109285
0"
#109325
1"
#109370
0"
#109410
1"
#109450
0"
#109495
1"
#109535
0"
#109575
1"
#109595
1!
#109620
0"
#109660
1"
#109685
0"
#109695
1"
#109990
0!
#110015
0"
#110055
1"
#110095
0"
#110140
1"
#110180
0"
#110220
1"
#110265
0"
#110305
1"
#110345
0"
#110390
1"
#110430
0"
#110470
1"
#110515
0"
#110555
1"
#110595
0"
#110640
1"
#110680
0"
#110725
1"
#110745
1!
#110765
0"
#110805
1"
#110845
0"
#110890
1"
#110910
0"
#110920
1"
#111220
0!
#111245
0"
#111285
1"
#111325
0"
#111370
1"
#111410
0"
#111450
1"
#111495
0"
#111535
1"
#111575
0"
#111620
1"
#111660
0"
#111700
1"
#111745
0"
#111785
1"
#111825
0"
#111870
1"
#111910
0"
#111950
1"
#111975
1!
#111995
0"
#112035
1"
#112075
0"
#112120
1"
#112135
0"
#112145
1"
#119505
0!
#119525
0"
#119565
1"
#119610
0"
#119650
1"
#119690
0"
#119735
1"
#119775
0"
#119815
1"
#119840
1!
#119860
0"
#119900
1"
#119920
0!
#119940
0"
#119985
1"
#120025
0"
#120065
1"
#120110
0"
#120150
1"
#120190
0"
#120235
1"
#120275
0"
#120315
1"
#120340
1!
#120360
0"
#120400
1"
#120435
0"
#120440
1"
#120735
0!
#120755
0"
#120795
1"
#120815
1!
#120835
0"
#120880
1"
#120920
0"
#120965
1"
#120985
0!
#121005
0"
#121045
1"
#121090
0"
#121130
1"
#121170
0"
#121215
1"
#121255
0"
#121295
1"
#121340
0"
#121380
1"
#121420
0"
#121465
1"
#121485
1!
#121505
0"
#121545
1"
#121590
0"
#121630
1"
#121655
0"
#121665
1"
#121960
0!
#121985
0"
#122025
1"
#122065
0"
#122110
1"
#122150
0"
#122190
1"
#122235
0"
#122275
1"
#122315
0"
#122360
1"
#122400
0"
#122445
1"
#122485
0"
#122525
1"
#122565
0"
#122610
1"
#122650
0"
#122695
1"
#122715
1!
#122735
0"
#122775
1"
#122820
0"
#122860
1"
